singular	null	categories
Eg synest {pronoun_subject} er veldig snill.
{'pronoun_subject} fortalde meg at huset er {possessive}.		possessiv
Eg spurde {pronoun_object} om eg kunne låne blyanten {possessive}.	Eg spurde {pronoun_object} om eg kunne låne blyanten til {pronoun_object}.	possessiv
Eg og {pronoun_subject} vil jobbe saman med prosjekta {possessive}.	Eg og {pronoun_subject} vil jobbe saman med {pronoun_subject} sine prosjekt.	possessiv
Kan eg ringje {pronoun_object} etter at {pronoun_subject} har ete middagen sin?
Har du sett {pronoun_object}? Eg må levere boka {possessive} tilbake til {pronoun_subject}.	Har du sett {pronoun_object}? Eg må levere {pronoun_subject} si bok tilbake.	possessiv
{'pronoun_subject} mista lommeboka si i går.
Eg gav {pronoun_object} planta {possessive} fordi {pronoun_subject} like gjerde den.	Eg gav {pronoun_object} {possessive} plante fordi {pronoun_subject} like gjerde den.	possessiv
Domaren sa at {pronoun_object} viser mykje respekt.
Etter forelesninga takka {pronoun_subject} læraren for hjelpa.
Kven meinte du at {pronoun_subject} ville ha med på turen?
Vennene til {pronoun_object} hjelpte {pronoun_object} med å jobbe på bilen.		possessiv
Kan du overlevere {possessive} bok til {pronoun_object}?		possessiv
Mora til {pronoun_object} er meir stolt av {possessive} prestasjon.	{pronoun_subject} si mor er meir stolt av {possessive} prestasjon.	possessiv
{'pronoun_subject} grét då {pronoun_subject} sa at innsatsen {possessive} ikkje var nok.	{pronoun_subject} grét då {pronoun_subject} sa at {possessive} sin innsats ikkje var nok.	possessiv
