{
    "$schema": "https://docs.renovatebot.com/renovate-schema.json",
    "extends": ["config:recommended", "npm:unpublishSafe"],
    "configMigration": true,
    "dependencyDashboardApproval": true,
    "dependencyDashboardOSVVulnerabilitySummary": "all",
    "ignorePaths": ["census/**", "new/**"],
    "labels": ["Updates/Upgrades"],
    "osvVulnerabilityAlerts": true,
    "packageRules": [{
        "groupName": "eslint",
        "matchPackageNames": ["eslint**", "@nuxt/eslint"]
    }, {
        "groupName": "sentry",
        "matchPackageNames": ["@sentry/**"]
    }],
    "rangeStrategy": "bump",
    "vulnerabilityAlerts": {
        "dependencyDashboardApproval": false
    }
}
