singular	plural
I think {pronoun_subject} is very nice.	I think {pronoun_subject} are very nice.
I met {pronoun_object} recently.	
Is this {possessive_determiner} dog?	
{'pronoun_subject} told me that the house is {possessive_pronoun}.	
{'pronoun_subject} said {pronoun_subject} would rather do it {reflexive}.	
{'pronoun_subject} is really beautiful.	{'pronoun_subject} are really beautiful.
{'pronoun_subject} answered the phone.	
{'pronoun_subject} takes good care of {possessive_determiner} cat.	{'pronoun_subject} take good care of {possessive_determiner} cat.
{'pronoun_subject} did it all by {reflexive}.	
{'pronoun_subject} talks in {possessive_determiner} sleep.	{'pronoun_subject} talk in {possessive_determiner} sleep.
{'pronoun_subject} landed the plane safely.	
{'pronoun_subject} argues that…	{'pronoun_subject} argue that…
Did you buy {pronoun_object} {possessive_determiner} gift?	
I asked {pronoun_object} if I can borrow {possessive_determiner} pencil.	
I talked to {pronoun_object} yesterday.	
Would you like to go to the movies with {pronoun_object}?	
Can you call {pronoun_object} when {possessive_determiner} cat awakes?	
{'possessive_determiner} graduation starts soon.	
My favorite color is purple, {possessive_pronoun} is yellow.	
